%FSLAX23Y23*%
%MOIN*%
G70*
G01*
G75*
%ADD10C,0.010*%
%ADD11R,0.060X0.060*%
%ADD12R,0.029X0.022*%
%ADD13R,0.030X0.030*%
%ADD14R,0.022X0.029*%
%ADD15R,0.012X0.024*%
%ADD16R,0.039X0.018*%
%ADD17R,0.014X0.039*%
%ADD18C,0.161*%
%ADD19C,0.080*%
%ADD20R,0.080X0.080*%
%ADD21C,0.050*%
%ADD22R,0.050X0.050*%
%ADD23C,0.026*%
%ADD24P,0.098X8X0*%
D10*
X9162Y6954D02*
X9161Y6964D01*
X9160Y6974D01*
X9157Y6984D01*
X9153Y6993D01*
X9149Y7002D01*
X9143Y7011D01*
X9137Y7018D01*
X9130Y7025D01*
X9122Y7032D01*
X9114Y7037D01*
X9105Y7042D01*
X9095Y7045D01*
X9086Y7048D01*
X9076Y7050D01*
X9066Y7050D01*
X9056Y7050D01*
X9046Y7048D01*
X9036Y7045D01*
X9027Y7042D01*
X9018Y7037D01*
X9010Y7032D01*
X9002Y7025D01*
X8995Y7018D01*
X8988Y7011D01*
X8983Y7002D01*
X8978Y6993D01*
X8975Y6984D01*
X8972Y6974D01*
X8971Y6964D01*
X8970Y6954D01*
X8971Y6944D01*
X8972Y6934D01*
X8975Y6925D01*
X8978Y6915D01*
X8983Y6906D01*
X8988Y6898D01*
X8995Y6890D01*
X9002Y6883D01*
X9010Y6877D01*
X9018Y6871D01*
X9027Y6867D01*
X9036Y6863D01*
X9046Y6861D01*
X9056Y6859D01*
X9066Y6859D01*
X9076Y6859D01*
X9086Y6861D01*
X9095Y6863D01*
X9105Y6867D01*
X9114Y6871D01*
X9122Y6877D01*
X9130Y6883D01*
X9137Y6890D01*
X9143Y6898D01*
X9149Y6906D01*
X9153Y6915D01*
X9157Y6925D01*
X9160Y6934D01*
X9161Y6944D01*
X9162Y6954D01*
X10724Y7241D02*
X10715Y7246D01*
X10706Y7249D01*
X10696Y7247D01*
X10687Y7243D01*
X10680Y7235D01*
X10677Y7226D01*
Y7216D01*
X10680Y7206D01*
X10687Y7199D01*
X10696Y7194D01*
X10706Y7193D01*
X10715Y7195D01*
X10724Y7201D01*
X9162Y8490D02*
X9161Y8500D01*
X9160Y8510D01*
X9157Y8519D01*
X9153Y8529D01*
X9149Y8538D01*
X9143Y8546D01*
X9137Y8554D01*
X9130Y8561D01*
X9122Y8567D01*
X9114Y8573D01*
X9105Y8577D01*
X9095Y8581D01*
X9086Y8583D01*
X9076Y8585D01*
X9066Y8585D01*
X9056Y8585D01*
X9046Y8583D01*
X9036Y8581D01*
X9027Y8577D01*
X9018Y8573D01*
X9010Y8567D01*
X9002Y8561D01*
X8995Y8554D01*
X8988Y8546D01*
X8983Y8538D01*
X8978Y8529D01*
X8975Y8519D01*
X8972Y8510D01*
X8971Y8500D01*
X8970Y8490D01*
X8971Y8480D01*
X8972Y8470D01*
X8975Y8460D01*
X8978Y8451D01*
X8983Y8442D01*
X8988Y8434D01*
X8995Y8426D01*
X9002Y8419D01*
X9010Y8412D01*
X9018Y8407D01*
X9027Y8402D01*
X9036Y8399D01*
X9046Y8396D01*
X9056Y8395D01*
X9066Y8394D01*
X9076Y8395D01*
X9086Y8396D01*
X9095Y8399D01*
X9105Y8402D01*
X9114Y8407D01*
X9122Y8412D01*
X9130Y8419D01*
X9137Y8426D01*
X9143Y8434D01*
X9149Y8442D01*
X9153Y8451D01*
X9157Y8460D01*
X9160Y8470D01*
X9161Y8480D01*
X9162Y8490D01*
X10847Y7059D02*
X10845Y7068D01*
X10841Y7077D01*
X10833Y7083D01*
X10824Y7086D01*
X10814D01*
X10805Y7083D01*
X10798Y7077D01*
X10793Y7068D01*
X10791Y7059D01*
X10793Y7049D01*
X10798Y7041D01*
X10805Y7034D01*
X10814Y7031D01*
X10824D01*
X10833Y7034D01*
X10841Y7041D01*
X10845Y7049D01*
X10847Y7059D01*
X10782Y7273D02*
X10774Y7279D01*
X10764Y7281D01*
X10754Y7281D01*
X10745Y7276D01*
X10738Y7269D01*
X10734Y7260D01*
X10733Y7250D01*
X10736Y7241D01*
X10876Y7201D02*
X10884Y7202D01*
X10890Y7206D01*
X10876Y7201D02*
X10884Y7202D01*
X10890Y7206D01*
X10985Y7276D02*
X10993Y7277D01*
X10999Y7281D01*
X11124Y7143D02*
X11115Y7148D01*
X11106Y7151D01*
X11096Y7149D01*
X11087Y7145D01*
X11080Y7137D01*
X11077Y7128D01*
Y7118D01*
X11080Y7108D01*
X11087Y7101D01*
X11096Y7096D01*
X11106Y7095D01*
X11115Y7097D01*
X11124Y7103D01*
X10985Y7276D02*
X10993Y7277D01*
X10999Y7281D01*
X11165Y7103D02*
X11173Y7104D01*
X11179Y7108D01*
X11165Y7103D02*
X11173Y7104D01*
X11179Y7108D01*
X10934Y7336D02*
X10926Y7334D01*
X10920Y7330D01*
X10934Y7336D02*
X10926Y7334D01*
X10920Y7330D01*
X11049Y7331D02*
X11054Y7338D01*
X11055Y7346D01*
X11049Y7331D02*
X11054Y7338D01*
X11055Y7346D01*
X10946Y7745D02*
X10953Y7739D01*
X10963Y7737D01*
X10972Y7738D01*
X10981Y7742D01*
Y7788D02*
X10977Y7790D01*
X11327Y6954D02*
X11326Y6964D01*
X11325Y6974D01*
X11322Y6984D01*
X11319Y6993D01*
X11314Y7002D01*
X11309Y7011D01*
X11302Y7018D01*
X11295Y7025D01*
X11288Y7032D01*
X11279Y7037D01*
X11270Y7042D01*
X11261Y7045D01*
X11251Y7048D01*
X11241Y7050D01*
X11231Y7050D01*
X11221Y7050D01*
X11211Y7048D01*
X11202Y7045D01*
X11192Y7042D01*
X11183Y7037D01*
X11175Y7032D01*
X11167Y7025D01*
X11160Y7018D01*
X11154Y7011D01*
X11148Y7002D01*
X11144Y6993D01*
X11140Y6984D01*
X11138Y6974D01*
X11136Y6964D01*
X11136Y6954D01*
X11136Y6944D01*
X11138Y6934D01*
X11140Y6925D01*
X11144Y6915D01*
X11148Y6906D01*
X11154Y6898D01*
X11160Y6890D01*
X11167Y6883D01*
X11175Y6877D01*
X11183Y6871D01*
X11192Y6867D01*
X11202Y6863D01*
X11211Y6861D01*
X11221Y6859D01*
X11231Y6859D01*
X11241Y6859D01*
X11251Y6861D01*
X11261Y6863D01*
X11270Y6867D01*
X11279Y6871D01*
X11288Y6877D01*
X11295Y6883D01*
X11302Y6890D01*
X11309Y6898D01*
X11314Y6906D01*
X11319Y6915D01*
X11322Y6925D01*
X11325Y6934D01*
X11326Y6944D01*
X11327Y6954D01*
X11220Y7149D02*
X11224Y7155D01*
X11226Y7163D01*
X11220Y7149D02*
X11224Y7155D01*
X11226Y7163D01*
X11234Y7411D02*
X11232Y7421D01*
X11227Y7429D01*
X11219Y7436D01*
X11210Y7439D01*
X11200Y7438D01*
X11191Y7435D01*
X11183Y7428D01*
X11179Y7419D01*
X11178Y7409D01*
X11180Y7400D01*
X11186Y7391D01*
X11226D02*
X11232Y7400D01*
X11234Y7411D01*
X10812Y8086D02*
X10814Y8078D01*
X10818Y8071D01*
X10812Y8086D02*
X10814Y8078D01*
X10818Y8071D01*
X10824Y8065D02*
X10826Y8056D01*
X10831Y8047D01*
X10838Y8041D01*
X10847Y8038D01*
X10857Y8038D01*
X10866Y8041D01*
X10874Y8048D01*
X10878Y8056D01*
X10880Y8066D01*
X10878Y8076D01*
X10872Y8085D01*
X10863Y8091D01*
X10852Y8094D01*
X11015Y7879D02*
X11006Y7882D01*
X10996Y7882D01*
X10986Y7878D01*
X10979Y7872D01*
X10974Y7863D01*
X10973Y7853D01*
X10976Y7843D01*
X10981Y7835D01*
X11013Y8004D02*
X11007Y8011D01*
X10999Y8016D01*
X10989Y8018D01*
X10980Y8016D01*
X10971Y8011D01*
X10965Y8004D01*
X10962Y7995D01*
X10961Y7985D01*
X10964Y7976D01*
X10970Y7969D01*
X10979Y7964D01*
X10988Y7962D01*
X10998Y7963D01*
X11055Y7954D02*
X11054Y7961D01*
X11049Y7968D01*
X11055Y7954D02*
X11054Y7961D01*
X11049Y7968D01*
X10943Y8575D02*
X10941Y8584D01*
X10936Y8593D01*
X10929Y8599D01*
X10919Y8602D01*
X10909Y8602D01*
X10900Y8598D01*
X10893Y8591D01*
X10888Y8583D01*
X10887Y8573D01*
X10890Y8563D01*
X10895Y8555D01*
X10935D02*
X10941Y8564D01*
X10943Y8575D01*
X11192Y8218D02*
X11191Y8228D01*
X11187Y8237D01*
X11181Y8245D01*
X11174Y8251D01*
X11164Y8256D01*
X11155Y8257D01*
X11145Y8257D01*
X11135Y8254D01*
X11127Y8248D01*
X11120Y8241D01*
X11115Y8232D01*
X11112Y8223D01*
Y8213D01*
X11115Y8203D01*
X11120Y8194D01*
X11127Y8187D01*
X11135Y8181D01*
X11145Y8178D01*
X11155Y8178D01*
X11164Y8180D01*
X11174Y8184D01*
X11181Y8190D01*
X11187Y8198D01*
X11191Y8208D01*
X11192Y8218D01*
X11292Y8218D02*
X11291Y8228D01*
X11287Y8237D01*
X11281Y8245D01*
X11274Y8251D01*
X11264Y8256D01*
X11255Y8257D01*
X11245Y8257D01*
X11235Y8254D01*
X11227Y8248D01*
X11220Y8241D01*
X11215Y8232D01*
X11212Y8223D01*
Y8213D01*
X11215Y8203D01*
X11220Y8194D01*
X11227Y8187D01*
X11235Y8181D01*
X11245Y8178D01*
X11255Y8178D01*
X11264Y8180D01*
X11274Y8184D01*
X11281Y8190D01*
X11287Y8198D01*
X11291Y8208D01*
X11292Y8218D01*
X11327Y8490D02*
X11326Y8500D01*
X11325Y8510D01*
X11322Y8519D01*
X11319Y8529D01*
X11314Y8538D01*
X11309Y8546D01*
X11302Y8554D01*
X11295Y8561D01*
X11288Y8567D01*
X11279Y8573D01*
X11270Y8577D01*
X11261Y8581D01*
X11251Y8583D01*
X11241Y8585D01*
X11231Y8585D01*
X11221Y8585D01*
X11211Y8583D01*
X11202Y8581D01*
X11192Y8577D01*
X11183Y8573D01*
X11175Y8567D01*
X11167Y8561D01*
X11160Y8554D01*
X11154Y8546D01*
X11148Y8538D01*
X11144Y8529D01*
X11140Y8519D01*
X11138Y8510D01*
X11136Y8500D01*
X11136Y8490D01*
X11136Y8480D01*
X11138Y8470D01*
X11140Y8460D01*
X11144Y8451D01*
X11148Y8442D01*
X11154Y8434D01*
X11160Y8426D01*
X11167Y8419D01*
X11175Y8412D01*
X11183Y8407D01*
X11192Y8402D01*
X11202Y8399D01*
X11211Y8396D01*
X11221Y8395D01*
X11231Y8394D01*
X11241Y8395D01*
X11251Y8396D01*
X11261Y8399D01*
X11270Y8402D01*
X11279Y8407D01*
X11288Y8412D01*
X11295Y8419D01*
X11302Y8426D01*
X11309Y8434D01*
X11314Y8442D01*
X11319Y8451D01*
X11322Y8460D01*
X11325Y8470D01*
X11326Y8480D01*
X11327Y8490D01*
X10965Y7765D02*
Y7774D01*
X10915Y7824D02*
X10965Y7774D01*
X10915Y7824D02*
Y8575D01*
X10839Y7765D02*
X10965D01*
X10761Y7254D02*
X10773Y7253D01*
X10871D01*
X10934Y7316D01*
X10951D01*
X11001Y7366D01*
Y7855D01*
X10704Y7221D02*
X10876D01*
X10951Y7296D01*
X10985D01*
X11035Y7346D01*
Y7954D01*
X10999Y7990D02*
X11035Y7954D01*
X10989Y7990D02*
X10999D01*
X11104Y7123D02*
X11165D01*
X11206Y7163D01*
Y7411D01*
X10831Y7938D02*
X10844Y7951D01*
X10831Y7867D02*
Y7938D01*
X10832Y8086D02*
X10852Y8066D01*
X10832Y8086D02*
Y8159D01*
X10831Y7757D02*
X10839Y7765D01*
X8928Y6906D02*
X8983D01*
X8928Y6916D02*
X8978D01*
X8970Y6817D02*
Y6952D01*
X8980Y6817D02*
Y6912D01*
X8928Y6817D02*
Y8628D01*
X8931Y6817D02*
Y8628D01*
X8941Y6817D02*
Y8628D01*
X8951Y6817D02*
Y8628D01*
X8960Y6817D02*
Y8628D01*
X8928Y6867D02*
X9027D01*
X8928Y6877D02*
X9010D01*
X9010Y6817D02*
Y6877D01*
X9019Y6817D02*
Y6871D01*
X9029Y6817D02*
Y6866D01*
X8928Y6886D02*
X8998D01*
X8928Y6896D02*
X8990D01*
X8990Y6817D02*
Y6896D01*
X9000Y6817D02*
Y6885D01*
X8928Y6926D02*
X8975D01*
X8928Y6936D02*
X8972D01*
X8928Y6946D02*
X8971D01*
X8928Y6955D02*
X8970D01*
X8928Y6965D02*
X8971D01*
X8928Y6975D02*
X8972D01*
X8970Y6957D02*
Y8488D01*
X8928Y6985D02*
X8975D01*
X8928Y6995D02*
X8979D01*
X8928Y7005D02*
X8984D01*
X8928Y7014D02*
X8991D01*
X8928Y7024D02*
X9001D01*
X8928Y7034D02*
X9013D01*
X8928Y7044D02*
X9032D01*
X8980Y6997D02*
Y8447D01*
X8990Y7013D02*
Y8432D01*
X9000Y7023D02*
Y8421D01*
X9010Y7032D02*
Y8412D01*
X9019Y7038D02*
Y8406D01*
X9049Y6817D02*
Y6860D01*
X9059Y6817D02*
Y6859D01*
X9069Y6817D02*
Y6859D01*
X9078Y6817D02*
Y6859D01*
X9039Y6817D02*
Y6862D01*
X9088Y6817D02*
Y6861D01*
X9098Y6817D02*
Y6864D01*
X9108Y6817D02*
Y6868D01*
X9118Y6817D02*
Y6874D01*
X9128Y6817D02*
Y6881D01*
X9138Y6817D02*
Y6891D01*
X9147Y6817D02*
Y6904D01*
X9157Y6817D02*
Y6926D01*
X9167Y6817D02*
Y8628D01*
X9177Y6817D02*
Y8628D01*
X9187Y6817D02*
Y8628D01*
X9197Y6817D02*
Y8628D01*
X9206Y6817D02*
Y8628D01*
X9216Y6817D02*
Y8628D01*
X9049Y7049D02*
Y8396D01*
X9059Y7050D02*
Y8394D01*
X9088Y7047D02*
Y8397D01*
X9069Y7050D02*
Y8394D01*
X9078Y7049D02*
Y8395D01*
X9029Y7043D02*
Y8401D01*
X9039Y7046D02*
Y8398D01*
X9118Y7035D02*
Y8409D01*
X9098Y7044D02*
Y8400D01*
X9108Y7040D02*
Y8404D01*
X9138Y7018D02*
Y8426D01*
X9128Y7027D02*
Y8417D01*
X9226Y6817D02*
Y8628D01*
X9147Y7005D02*
Y8440D01*
X9157Y6983D02*
Y8461D01*
X9236Y6817D02*
Y8628D01*
X9246Y6817D02*
Y8628D01*
X9256Y6817D02*
Y8628D01*
X9265Y6817D02*
Y8628D01*
X9275Y6817D02*
Y8628D01*
X9285Y6817D02*
Y8628D01*
X9295Y6817D02*
Y8628D01*
X9305Y6817D02*
Y8628D01*
X9315Y6817D02*
Y8628D01*
X9325Y6817D02*
Y8628D01*
X9334Y6817D02*
Y8628D01*
X9344Y6817D02*
Y8628D01*
X9354Y6817D02*
Y8628D01*
X9364Y6817D02*
Y8628D01*
X9374Y6817D02*
Y8628D01*
X9384Y6817D02*
Y8628D01*
X9393Y6817D02*
Y8628D01*
X9403Y6817D02*
Y8628D01*
X9413Y6817D02*
Y8628D01*
X9423Y6817D02*
Y8628D01*
X9433Y6817D02*
Y8628D01*
X9443Y6817D02*
Y8628D01*
X9452Y6817D02*
Y8628D01*
X9462Y6817D02*
Y8628D01*
X9472Y6817D02*
Y8628D01*
X9482Y6817D02*
Y8628D01*
X9492Y6817D02*
Y8628D01*
X9502Y6817D02*
Y8628D01*
X9512Y6817D02*
Y8628D01*
X9521Y6817D02*
Y8628D01*
X9531Y6817D02*
Y8628D01*
X9541Y6817D02*
Y8628D01*
X9551Y6817D02*
Y8628D01*
X9561Y6817D02*
Y8628D01*
X9571Y6817D02*
Y8628D01*
X9580Y6817D02*
Y8628D01*
X9590Y6817D02*
Y8628D01*
X9600Y6817D02*
Y8628D01*
X9610Y6817D02*
Y8628D01*
X9620Y6817D02*
Y8628D01*
X9630Y6817D02*
Y8628D01*
X9639Y6817D02*
Y8628D01*
X9649Y6817D02*
Y8628D01*
X9659Y6817D02*
Y8628D01*
X9669Y6817D02*
Y8628D01*
X9679Y6817D02*
Y8628D01*
X9689Y6817D02*
Y8628D01*
X9699Y6817D02*
Y8628D01*
X9708Y6817D02*
Y8628D01*
X9718Y6817D02*
Y8628D01*
X9728Y6817D02*
Y8628D01*
X9738Y6817D02*
Y8628D01*
X9748Y6817D02*
Y8628D01*
X9758Y6817D02*
Y8628D01*
X9767Y6817D02*
Y8628D01*
X9777Y6817D02*
Y8628D01*
X9787Y6817D02*
Y8628D01*
X9797Y6817D02*
Y8628D01*
X9807Y6817D02*
Y8628D01*
X9817Y6817D02*
Y8628D01*
X9826Y6817D02*
Y8628D01*
X9836Y6817D02*
Y8628D01*
X9846Y6817D02*
Y8628D01*
X9856Y6817D02*
Y8628D01*
X9866Y6817D02*
Y8628D01*
X9876Y6817D02*
Y8628D01*
X9886Y6817D02*
Y8628D01*
X9895Y6817D02*
Y8628D01*
X9905Y6817D02*
Y8628D01*
X9915Y6817D02*
Y8628D01*
X9925Y6817D02*
Y8628D01*
X9935Y6817D02*
Y8628D01*
X9945Y6817D02*
Y8628D01*
X9954Y6817D02*
Y8628D01*
X9964Y6817D02*
Y8628D01*
X9974Y6817D02*
Y8628D01*
X9984Y6817D02*
Y8628D01*
X9994Y6817D02*
Y8628D01*
X10004Y6817D02*
Y8628D01*
X10013Y6817D02*
Y8628D01*
X10023Y6817D02*
Y8628D01*
X10033Y6817D02*
Y8628D01*
X10043Y6817D02*
Y8628D01*
X9149Y6906D02*
X11149D01*
X9154Y6916D02*
X11144D01*
X9157Y6926D02*
X11140D01*
X9160Y6936D02*
X11137D01*
X9153Y6995D02*
X11145D01*
X9147Y7005D02*
X11150D01*
X9161Y6946D02*
X11136D01*
X9159Y6975D02*
X11138D01*
X9157Y6985D02*
X11141D01*
X8928Y6817D02*
X11369D01*
X8928Y6818D02*
X11369D01*
X8928Y6827D02*
X11369D01*
X8928Y6837D02*
X11369D01*
X8928Y6847D02*
X11369D01*
X8928Y6857D02*
X11369D01*
X9105Y6867D02*
X11193D01*
X9122Y6877D02*
X11175D01*
X9142Y6896D02*
X11155D01*
X9133Y6886D02*
X11164D01*
X8928Y7054D02*
X10097D01*
X8928Y7064D02*
X10097D01*
X9119Y7034D02*
X10097D01*
X9099Y7044D02*
X10097D01*
X8928Y7073D02*
X10097D01*
X8928Y7083D02*
X10097D01*
X8928Y7093D02*
X10097D01*
X8928Y7103D02*
X10097D01*
X8928Y7113D02*
X10097D01*
X8928Y7123D02*
X10097D01*
X8928Y7133D02*
X10097D01*
X9140Y7014D02*
X11157D01*
X8928Y7142D02*
X10114D01*
X9131Y7024D02*
X11166D01*
X8928Y7152D02*
X10104D01*
X8928Y7162D02*
X10097D01*
X8928Y7172D02*
X10097D01*
X8928Y7182D02*
X10097D01*
X8928Y7192D02*
X10097D01*
X10102Y6817D02*
Y7032D01*
X10112Y6817D02*
Y7032D01*
X10122Y6817D02*
Y7032D01*
X10132Y6817D02*
Y7032D01*
X10141Y6817D02*
Y7032D01*
X10097D02*
Y7142D01*
X10151Y6817D02*
Y7032D01*
X10161Y6817D02*
Y7032D01*
X10171Y6817D02*
Y7032D01*
X9162Y6955D02*
X11136D01*
X9161Y6965D02*
X11136D01*
X10181Y6817D02*
Y7032D01*
X10191Y6817D02*
Y7032D01*
X10200Y6817D02*
Y7032D01*
X10097D02*
X10207D01*
Y7034D02*
X10805D01*
X10702Y6817D02*
Y7193D01*
X10207Y7032D02*
Y7142D01*
Y7044D02*
X10795D01*
X10207Y7054D02*
X10792D01*
X10097Y7142D02*
X10115D01*
X10207Y7064D02*
X10792D01*
X10207Y7073D02*
X10795D01*
X10207Y7083D02*
X10806D01*
X10097Y7159D02*
X10115Y7142D01*
X10102D02*
Y7154D01*
X10190Y7142D02*
X10207D01*
X10200D02*
Y7152D01*
X10190Y7142D02*
X10207Y7159D01*
Y7093D02*
X11369D01*
X10207Y7103D02*
X11084D01*
X10207Y7113D02*
X11078D01*
X10207Y7123D02*
X11076D01*
X10207Y7133D02*
X11078D01*
X10190Y7142D02*
X11084D01*
X10200Y7152D02*
X11167D01*
X10207Y7162D02*
X11176D01*
X10207Y7172D02*
X11186D01*
X10207Y7182D02*
X11186D01*
X10053Y6817D02*
Y8628D01*
X10063Y6817D02*
Y8628D01*
X10073Y6817D02*
Y8628D01*
X10082Y6817D02*
Y8628D01*
X10092Y6817D02*
Y8628D01*
X10210Y6817D02*
Y8628D01*
X10220Y6817D02*
Y8628D01*
X10230Y6817D02*
Y8628D01*
X10240Y6817D02*
Y8628D01*
X10250Y6817D02*
Y8628D01*
X10260Y6817D02*
Y8628D01*
X10269Y6817D02*
Y8628D01*
X10279Y6817D02*
Y8628D01*
X10289Y6817D02*
Y8628D01*
X10299Y6817D02*
Y8628D01*
X10309Y6817D02*
Y8628D01*
X10319Y6817D02*
Y8628D01*
X10328Y6817D02*
Y8628D01*
X10338Y6817D02*
Y8628D01*
X8928Y7201D02*
X10097D01*
X8928Y7211D02*
X10097D01*
Y7159D02*
Y7214D01*
X8928Y7221D02*
X10104D01*
X8928Y7231D02*
X10114D01*
X10097Y7214D02*
X10125Y7242D01*
X8928Y7241D02*
X10124D01*
X10102Y7219D02*
Y8628D01*
X10112Y7229D02*
Y8628D01*
X10122Y7239D02*
Y8628D01*
X10207Y7192D02*
X11186D01*
X10200Y7221D02*
X10676D01*
X10207Y7159D02*
Y7214D01*
Y7211D02*
X10678D01*
X10207Y7201D02*
X10684D01*
X10180Y7242D02*
X10207Y7214D01*
X10190Y7231D02*
X10678D01*
X10348Y6817D02*
Y8628D01*
X10191Y7231D02*
Y8628D01*
X10200Y7221D02*
Y8628D01*
X10358Y6817D02*
Y8628D01*
X10368Y6817D02*
Y8628D01*
X10378Y6817D02*
Y8628D01*
X10387Y6817D02*
Y8628D01*
X10397Y6817D02*
Y8628D01*
X10407Y6817D02*
Y8628D01*
X10417Y6817D02*
Y8628D01*
X10427Y6817D02*
Y8628D01*
X10437Y6817D02*
Y8628D01*
X10447Y6817D02*
Y8628D01*
X10456Y6817D02*
Y8628D01*
X10466Y6817D02*
Y8628D01*
X10476Y6817D02*
Y8628D01*
X10486Y6817D02*
Y8628D01*
X10496Y6817D02*
Y8628D01*
X10506Y6817D02*
Y8628D01*
X10515Y6817D02*
Y8628D01*
X10525Y6817D02*
Y8628D01*
X10535Y6817D02*
Y8628D01*
X10545Y6817D02*
Y8628D01*
X10555Y6817D02*
Y8628D01*
X10565Y6817D02*
Y8628D01*
X10574Y6817D02*
Y8628D01*
X10634Y6817D02*
Y7732D01*
X10584Y6817D02*
Y8628D01*
X10594Y6817D02*
Y8628D01*
X10604Y6817D02*
Y8628D01*
X10614Y6817D02*
Y8628D01*
X10624Y6817D02*
Y8628D01*
X10683Y6817D02*
Y7202D01*
X10693Y6817D02*
Y7195D01*
X10712Y6817D02*
Y7194D01*
X10722Y6817D02*
Y7199D01*
X10724Y7201D02*
X10876D01*
X10643Y6817D02*
Y7722D01*
X10653Y6817D02*
Y7712D01*
X10663Y6817D02*
Y7709D01*
X10673Y6817D02*
Y7709D01*
X8928Y7733D02*
X10633D01*
X8928Y7743D02*
X10632D01*
X8928Y7753D02*
X10632D01*
X8928Y7762D02*
X10632D01*
X8928Y7772D02*
X10632D01*
X8928Y7782D02*
X10632D01*
X8928Y7841D02*
X10632D01*
X8928Y7851D02*
X10632D01*
X8928Y7861D02*
X10632D01*
X8928Y7713D02*
X10652D01*
X8928Y7723D02*
X10643D01*
X8928Y7792D02*
X10640D01*
X8928Y7802D02*
X10650D01*
X8928Y7812D02*
X10654D01*
X8928Y7821D02*
X10644D01*
X8928Y7831D02*
X10634D01*
X8928Y7871D02*
X10632D01*
X8928Y7881D02*
X10632D01*
X8928Y7890D02*
X10639D01*
X8928Y7940D02*
X10632D01*
X8928Y7949D02*
X10632D01*
X8928Y7959D02*
X10632D01*
X8928Y7969D02*
X10632D01*
X8928Y7979D02*
X10632D01*
X8928Y8038D02*
X10632D01*
X8928Y8048D02*
X10632D01*
X8928Y8058D02*
X10632D01*
X8928Y8068D02*
X10632D01*
X8928Y7900D02*
X10649D01*
X8928Y7910D02*
X10656D01*
X8928Y7920D02*
X10646D01*
X8928Y7930D02*
X10636D01*
X8928Y7989D02*
X10637D01*
X8928Y7999D02*
X10647D01*
X8928Y8008D02*
X10657D01*
X8928Y8018D02*
X10647D01*
X8928Y8077D02*
X10632D01*
X8928Y8028D02*
X10637D01*
X10180Y7241D02*
X10685D01*
X10125Y7242D02*
X10180D01*
X10632Y7734D02*
X10657Y7709D01*
X10632Y7734D02*
Y7784D01*
X10657Y7809D01*
X10634Y7785D02*
Y7832D01*
X10643Y7795D02*
Y7822D01*
X10653Y7805D02*
Y7812D01*
X10632Y7834D02*
X10657Y7809D01*
X10683Y7239D02*
Y7709D01*
X10657D02*
X10707D01*
X10693Y7246D02*
Y7709D01*
X10702Y7249D02*
Y7709D01*
X10712Y7247D02*
Y7714D01*
X10657Y7809D02*
X10707D01*
X10657Y7809D02*
X10707D01*
X10722Y7242D02*
Y7724D01*
X10712Y7803D02*
Y7814D01*
X10722Y7794D02*
Y7824D01*
X10632Y7834D02*
Y7884D01*
X10634Y7885D02*
Y7932D01*
X10643Y7895D02*
Y7922D01*
X10632Y7934D02*
Y7984D01*
X10653Y7905D02*
Y7912D01*
X10634Y7985D02*
Y8032D01*
X8928Y8087D02*
X10636D01*
X10643Y7995D02*
Y8022D01*
X10632Y8034D02*
Y8084D01*
X10653Y8005D02*
Y8012D01*
X10632Y7884D02*
X10657Y7909D01*
X10632Y7934D02*
X10657Y7909D01*
X10712Y7903D02*
Y7914D01*
X10657Y7909D02*
X10707D01*
X10657Y7909D02*
X10707D01*
X10632Y7984D02*
X10657Y8009D01*
X10632Y8034D02*
X10657Y8009D01*
X10712Y8003D02*
Y8014D01*
X10657Y8009D02*
X10707D01*
X10657Y8009D02*
X10707D01*
X8928Y8136D02*
X10632D01*
X8928Y8146D02*
X10632D01*
X8928Y8402D02*
X9027D01*
X8928Y8412D02*
X9010D01*
X8928Y8422D02*
X8998D01*
X8928Y8432D02*
X8990D01*
X8928Y8451D02*
X8978D01*
X8928Y8442D02*
X8983D01*
X8928Y8097D02*
X10646D01*
X8928Y8107D02*
X10655D01*
X8928Y8117D02*
X10649D01*
X8928Y8156D02*
X10632D01*
X8928Y8127D02*
X10639D01*
X8928Y8166D02*
X10632D01*
X8928Y8176D02*
X10632D01*
X8928Y8186D02*
X10634D01*
X8928Y8195D02*
X10644D01*
X8928Y8205D02*
X10654D01*
X8928Y8461D02*
X8975D01*
X8928Y8471D02*
X8972D01*
X8928Y8481D02*
X8971D01*
X8928Y8491D02*
X8970D01*
X8928Y8501D02*
X8971D01*
X8928Y8510D02*
X8972D01*
X8928Y8520D02*
X8975D01*
X8970Y8492D02*
Y8628D01*
X8928Y8530D02*
X8979D01*
X8980Y8532D02*
Y8628D01*
X8928Y8540D02*
X8984D01*
X8928Y8550D02*
X8991D01*
X8928Y8560D02*
X9001D01*
X8928Y8569D02*
X9013D01*
X8928Y8579D02*
X9032D01*
X8990Y8548D02*
Y8628D01*
X9000Y8559D02*
Y8628D01*
X9010Y8567D02*
Y8628D01*
X9019Y8573D02*
Y8628D01*
X9029Y8578D02*
Y8628D01*
X10132Y7242D02*
Y8628D01*
X10141Y7242D02*
Y8628D01*
X10634Y8085D02*
Y8132D01*
X10632Y8134D02*
Y8184D01*
X10151Y7242D02*
Y8628D01*
X10161Y7242D02*
Y8628D01*
X10181Y7240D02*
Y8628D01*
X10171Y7242D02*
Y8628D01*
X10634Y8185D02*
Y8628D01*
X10632Y8084D02*
X10657Y8109D01*
X10653Y8105D02*
Y8112D01*
X10712Y8103D02*
Y8114D01*
X10657Y8109D02*
X10707D01*
X10657Y8109D02*
X10707D01*
X10632Y8134D02*
X10657Y8109D01*
X10632Y8184D02*
X10657Y8209D01*
X10643Y8095D02*
Y8122D01*
Y8195D02*
Y8628D01*
X10653Y8205D02*
Y8628D01*
X9039Y8582D02*
Y8628D01*
X9049Y8584D02*
Y8628D01*
X9059Y8585D02*
Y8628D01*
X9069Y8585D02*
Y8628D01*
X9078Y8585D02*
Y8628D01*
X9098Y8580D02*
Y8628D01*
X9088Y8583D02*
Y8628D01*
X9128Y8563D02*
Y8628D01*
X9108Y8576D02*
Y8628D01*
X9118Y8570D02*
Y8628D01*
X9147Y8540D02*
Y8628D01*
X9138Y8553D02*
Y8628D01*
X10657Y8209D02*
X10707D01*
X9157Y8518D02*
Y8628D01*
X10663Y8209D02*
Y8628D01*
X10673Y8209D02*
Y8628D01*
X10683Y8209D02*
Y8628D01*
X10712Y8203D02*
Y8628D01*
X10693Y8209D02*
Y8628D01*
X10702Y8209D02*
Y8628D01*
X8928Y7251D02*
X10733D01*
X8928Y7260D02*
X10734D01*
X8928Y7270D02*
X10739D01*
X8928Y7280D02*
X10752D01*
X8928Y7290D02*
X10880D01*
X8928Y7300D02*
X10890D01*
X8928Y7310D02*
X10900D01*
X8928Y7320D02*
X10910D01*
X8928Y7329D02*
X10920D01*
X8928Y7339D02*
X10947D01*
X8928Y7349D02*
X10956D01*
X8928Y7359D02*
X10966D01*
X8928Y7369D02*
X10976D01*
X8928Y7379D02*
X10981D01*
X8928Y7388D02*
X10981D01*
X8928Y7398D02*
X10981D01*
X8928Y7408D02*
X10981D01*
X8928Y7418D02*
X10981D01*
X8928Y7428D02*
X10981D01*
X8928Y7438D02*
X10981D01*
X8928Y7447D02*
X10981D01*
X8928Y7457D02*
X10981D01*
X8928Y7467D02*
X10981D01*
X8928Y7477D02*
X10981D01*
X8928Y7487D02*
X10981D01*
X8928Y7497D02*
X10981D01*
X8928Y7507D02*
X10981D01*
X8928Y7516D02*
X10981D01*
X8928Y7526D02*
X10981D01*
X8928Y7536D02*
X10981D01*
X8928Y7546D02*
X10981D01*
X8928Y7556D02*
X10981D01*
X8928Y7566D02*
X10981D01*
X8928Y7575D02*
X10981D01*
X8928Y7585D02*
X10981D01*
X8928Y7595D02*
X10981D01*
X8928Y7605D02*
X10981D01*
X8928Y7615D02*
X10981D01*
X8928Y7625D02*
X10981D01*
X10712Y7713D02*
X10778D01*
X10722Y7723D02*
X10768D01*
X10724Y7241D02*
X10736D01*
X10723Y7241D02*
X10736D01*
X10707Y7709D02*
X10732Y7734D01*
X10707Y7809D02*
X10732Y7784D01*
Y7734D02*
Y7784D01*
X10707Y7809D02*
X10732Y7834D01*
X10724Y7792D02*
X10770D01*
X8928Y7634D02*
X10981D01*
X8928Y7644D02*
X10981D01*
X8928Y7654D02*
X10981D01*
X8928Y7664D02*
X10981D01*
X8928Y7674D02*
X10981D01*
X8928Y7684D02*
X10981D01*
X8928Y7694D02*
X10798D01*
X8928Y7703D02*
X10788D01*
X10714Y7802D02*
X10780D01*
X10710Y7812D02*
X10790D01*
X10725Y7890D02*
X10767D01*
X10715Y7900D02*
X10768D01*
X10730Y7831D02*
X10770D01*
X10732Y7834D02*
Y7884D01*
Y7881D02*
X10767D01*
X10707Y7909D02*
X10732Y7884D01*
X10707Y7909D02*
X10732Y7934D01*
X10732Y7884D02*
Y7933D01*
X10722Y7894D02*
Y7924D01*
X10732Y7934D02*
Y7984D01*
X10709Y7910D02*
X10778D01*
X10718Y7920D02*
X10788D01*
X10720Y7821D02*
X10780D01*
X10728Y7930D02*
X10798D01*
X10732Y7940D02*
X10895D01*
X10732Y7949D02*
X10895D01*
X10727Y7989D02*
X10895D01*
X10732Y7959D02*
X10895D01*
X10732Y7969D02*
X10895D01*
X10732Y7979D02*
X10895D01*
X8928Y8215D02*
X10792D01*
X8928Y8225D02*
X10895D01*
X8928Y8235D02*
X10895D01*
X8928Y8245D02*
X10895D01*
X8928Y8255D02*
X10895D01*
X8928Y8264D02*
X10895D01*
X8928Y8274D02*
X10895D01*
X8928Y8284D02*
X10895D01*
X8928Y8294D02*
X10895D01*
X8928Y8304D02*
X10895D01*
X8928Y8314D02*
X10895D01*
X8928Y8323D02*
X10895D01*
X8928Y8333D02*
X10895D01*
X8928Y8343D02*
X10895D01*
X8928Y8353D02*
X10895D01*
X8928Y8363D02*
X10895D01*
X8928Y8373D02*
X10895D01*
X8928Y8382D02*
X10895D01*
X8928Y8392D02*
X10895D01*
X9104Y8402D02*
X10895D01*
X9122Y8412D02*
X10895D01*
X9133Y8422D02*
X10895D01*
X9142Y8432D02*
X10895D01*
X9149Y8442D02*
X10895D01*
X9100Y8579D02*
X10888D01*
X8928Y8589D02*
X10891D01*
X9154Y8451D02*
X10895D01*
X9119Y8569D02*
X10888D01*
X9131Y8560D02*
X10891D01*
X9153Y8530D02*
X10895D01*
X9147Y8540D02*
X10895D01*
X9157Y8461D02*
X10895D01*
X9160Y8471D02*
X10895D01*
X9157Y8520D02*
X10895D01*
X8928Y8599D02*
X10901D01*
X8928Y8609D02*
X11369D01*
X9140Y8550D02*
X10895D01*
X8928Y8619D02*
X11369D01*
X8928Y8628D02*
X11369D01*
X10707Y8009D02*
X10732Y7984D01*
X10707Y8009D02*
X10732Y8034D01*
X10732Y7984D02*
Y8033D01*
X10722Y7994D02*
Y8024D01*
X10707Y8109D02*
X10732Y8084D01*
X10719Y8097D02*
X10797D01*
X10732Y8034D02*
Y8084D01*
X10722Y8094D02*
Y8124D01*
X10732Y8084D02*
Y8133D01*
X10717Y7999D02*
X10895D01*
X10707Y8008D02*
X10895D01*
X10717Y8018D02*
X10895D01*
X10732Y8038D02*
X10847D01*
X10727Y8028D02*
X10895D01*
X10732Y8048D02*
X10830D01*
X10728Y8087D02*
X10812D01*
X10732Y8058D02*
X10825D01*
X10732Y8077D02*
X10814D01*
X10732Y8068D02*
X10822D01*
X10707Y8109D02*
X10732Y8134D01*
X10725Y8127D02*
X10768D01*
X10732Y8136D02*
X10768D01*
X10732Y8146D02*
X10768D01*
X10732Y8156D02*
X10768D01*
X10707Y8209D02*
X10732Y8184D01*
X10722Y8194D02*
Y8628D01*
X10732Y8134D02*
Y8184D01*
X10732Y8184D02*
Y8628D01*
X10732Y8166D02*
X10768D01*
X10709Y8107D02*
X10787D01*
X10715Y8117D02*
X10778D01*
X10732Y8176D02*
X10768D01*
X10730Y8186D02*
X10768D01*
X10720Y8195D02*
X10773D01*
X9161Y8481D02*
X10895D01*
X9159Y8510D02*
X10895D01*
X10710Y8205D02*
X10783D01*
X9162Y8491D02*
X10895D01*
X9161Y8501D02*
X10895D01*
X10732Y6817D02*
Y7201D01*
X10742Y6817D02*
Y7201D01*
X10801Y6817D02*
Y7037D01*
X10811Y6817D02*
Y7032D01*
X10752Y6817D02*
Y7201D01*
X10761Y6817D02*
Y7201D01*
X10771Y6817D02*
Y7201D01*
X10781Y6817D02*
Y7201D01*
X10791Y6817D02*
Y7201D01*
X10821Y6817D02*
Y7031D01*
X10830Y6817D02*
Y7033D01*
X10840Y6817D02*
Y7040D01*
X10850Y6817D02*
Y7201D01*
X10860Y6817D02*
Y7201D01*
X10870Y6817D02*
Y7201D01*
X10880Y6817D02*
Y7201D01*
X10889Y6817D02*
Y7206D01*
X10899Y6817D02*
Y7215D01*
X10909Y6817D02*
Y7225D01*
X10801Y7080D02*
Y7201D01*
X10811Y7085D02*
Y7201D01*
X10821Y7087D02*
Y7201D01*
X10770Y7280D02*
X10870D01*
X10840Y7077D02*
Y7201D01*
X10830Y7084D02*
Y7201D01*
X10782Y7273D02*
X10863D01*
X10833Y7034D02*
X11178D01*
X10882Y7201D02*
X11186D01*
X10895Y7211D02*
X11186D01*
X10890Y7206D02*
X10959Y7276D01*
X10905Y7221D02*
X11186D01*
X10919Y6817D02*
Y7235D01*
X10915Y7231D02*
X11186D01*
X10925Y7241D02*
X11186D01*
X10929Y6817D02*
Y7245D01*
X10939Y6817D02*
Y7255D01*
X10948Y6817D02*
Y7265D01*
X10958Y6817D02*
Y7274D01*
X10968Y6817D02*
Y7276D01*
X10978Y6817D02*
Y7276D01*
X10988Y6817D02*
Y7276D01*
X10998Y6817D02*
Y7280D01*
X11008Y6817D02*
Y7290D01*
X11086Y6817D02*
Y7101D01*
X11096Y6817D02*
Y7096D01*
X11106Y6817D02*
Y7095D01*
X11116Y6817D02*
Y7097D01*
X11126Y6817D02*
Y7103D01*
X11017Y6817D02*
Y7300D01*
X11027Y6817D02*
Y7309D01*
X11037Y6817D02*
Y7319D01*
X11076Y6817D02*
Y7118D01*
X11135Y6817D02*
Y7103D01*
X11145Y6817D02*
Y6912D01*
Y6996D02*
Y7103D01*
X11155Y6817D02*
Y6896D01*
Y7012D02*
Y7103D01*
X11165Y6817D02*
Y6885D01*
X10959Y7276D02*
X10985D01*
X11124Y7143D02*
X11157D01*
X11165Y7023D02*
Y7103D01*
X11124D02*
X11165D01*
X11175Y6817D02*
Y6877D01*
Y7032D02*
Y7105D01*
X11185Y6817D02*
Y6871D01*
X11157Y7143D02*
X11186Y7171D01*
X10934Y7251D02*
X11186D01*
X11185Y7038D02*
Y7114D01*
X10781Y7273D02*
Y7710D01*
X10791Y7273D02*
Y7700D01*
X10801Y7273D02*
Y7692D01*
X10811Y7273D02*
Y7692D01*
X10732Y7241D02*
Y7733D01*
X10742Y7274D02*
Y8628D01*
X10752Y7280D02*
Y8628D01*
X10761Y7282D02*
Y8628D01*
X10771Y7280D02*
Y7720D01*
X10821Y7273D02*
Y7692D01*
X10830Y7273D02*
Y7692D01*
X10840Y7273D02*
Y7692D01*
X10850Y7273D02*
Y7692D01*
X10863Y7273D02*
X10920Y7330D01*
X10860Y7273D02*
Y7692D01*
X10870Y7279D02*
Y7699D01*
X10880Y7289D02*
Y7709D01*
X10889Y7299D02*
Y7719D01*
X10899Y7309D02*
Y7745D01*
X10731Y7733D02*
X10767D01*
X10732Y7743D02*
X10767D01*
Y7724D02*
X10799Y7692D01*
X10732Y7753D02*
X10767D01*
X10732Y7762D02*
X10767D01*
X10732Y7772D02*
X10767D01*
X10732Y7782D02*
X10767D01*
Y7724D02*
Y7789D01*
X10732Y7784D02*
Y7833D01*
X10767Y7789D02*
X10790Y7812D01*
X10799Y7692D02*
X10863D01*
X10895Y7724D01*
X10864Y7694D02*
X10981D01*
X10874Y7703D02*
X10981D01*
X10884Y7713D02*
X10981D01*
X10894Y7723D02*
X10981D01*
X10895Y7733D02*
X10981D01*
X10895Y7724D02*
Y7745D01*
Y7743D02*
X10948D01*
X10895Y7745D02*
X10946D01*
X10909Y7319D02*
Y7745D01*
X11047Y6817D02*
Y7329D01*
X10999Y7281D02*
X11049Y7331D01*
X11057Y6817D02*
Y8178D01*
X11067Y6817D02*
Y8178D01*
X11076Y7127D02*
Y8178D01*
X11086Y7144D02*
Y8178D01*
X11096Y7149D02*
Y8628D01*
X11145Y7143D02*
Y8178D01*
X11155Y7143D02*
Y8178D01*
X11165Y7151D02*
Y8180D01*
X11185Y7170D02*
Y7392D01*
X11186Y7171D02*
Y7391D01*
X11116Y7148D02*
Y8201D01*
X11106Y7151D02*
Y8628D01*
X11126Y7143D02*
Y8188D01*
X11135Y7143D02*
Y8181D01*
X11175Y7161D02*
Y8185D01*
X10934Y7336D02*
X10943D01*
X10958Y7351D02*
Y7737D01*
X10968Y7361D02*
Y7737D01*
X10978Y7371D02*
Y7740D01*
X10919Y7329D02*
Y7745D01*
X10929Y7335D02*
Y7745D01*
X10939Y7336D02*
Y7745D01*
X10948Y7341D02*
Y7742D01*
X10935Y7832D02*
X10977Y7790D01*
X10943Y7336D02*
X10981Y7374D01*
X11055Y7408D02*
X11178D01*
X11055Y7398D02*
X11181D01*
X11055Y7346D02*
Y7954D01*
X10981Y7374D02*
Y7742D01*
X11055Y7418D02*
X11178D01*
X11195Y6817D02*
Y6866D01*
X11204Y6817D02*
Y6862D01*
X11214Y6817D02*
Y6860D01*
X11224Y6817D02*
Y6859D01*
X10843Y7044D02*
X11198D01*
X11179Y7108D02*
X11220Y7149D01*
X11195Y7043D02*
Y7124D01*
X11204Y7046D02*
Y7134D01*
X11214Y7049D02*
Y7143D01*
X10843Y7073D02*
X11369D01*
X10832Y7083D02*
X11369D01*
X10847Y7054D02*
X11369D01*
X10847Y7064D02*
X11369D01*
X11169Y7103D02*
X11369D01*
X11184Y7113D02*
X11369D01*
X11224Y7050D02*
Y7155D01*
X11194Y7123D02*
X11369D01*
X11203Y7133D02*
X11369D01*
X10944Y7260D02*
X11186D01*
X10954Y7270D02*
X11186D01*
X10998Y7280D02*
X11186D01*
X11008Y7290D02*
X11186D01*
X11018Y7300D02*
X11186D01*
X11028Y7310D02*
X11186D01*
X11037Y7320D02*
X11186D01*
X11047Y7329D02*
X11186D01*
X11213Y7142D02*
X11369D01*
X11222Y7152D02*
X11369D01*
X11226Y7162D02*
X11369D01*
X11226Y7172D02*
X11369D01*
X11226Y7182D02*
X11369D01*
X11226Y7192D02*
X11369D01*
X11226Y7201D02*
X11369D01*
X11226Y7211D02*
X11369D01*
X11226Y7221D02*
X11369D01*
X11234Y6817D02*
Y6859D01*
X11244Y6817D02*
Y6859D01*
X11254Y6817D02*
Y6861D01*
X11263Y6817D02*
Y6864D01*
X11273Y6817D02*
Y6868D01*
X11283Y6817D02*
Y6874D01*
X11293Y6817D02*
Y6881D01*
X11303Y6817D02*
Y6891D01*
X11313Y6817D02*
Y6904D01*
X11270Y6867D02*
X11369D01*
X11287Y6877D02*
X11369D01*
X11299Y6886D02*
X11369D01*
X11307Y6896D02*
X11369D01*
X11314Y6906D02*
X11369D01*
X11322Y6817D02*
Y6925D01*
X11319Y6916D02*
X11369D01*
X11323Y6926D02*
X11369D01*
X11325Y6936D02*
X11369D01*
X11327Y6946D02*
X11369D01*
X11322Y6985D02*
X11369D01*
X11318Y6995D02*
X11369D01*
X11327Y6955D02*
X11369D01*
X11326Y6965D02*
X11369D01*
X11325Y6975D02*
X11369D01*
X11284Y7034D02*
X11369D01*
X11265Y7044D02*
X11369D01*
X11313Y7005D02*
X11369D01*
X11306Y7014D02*
X11369D01*
X11297Y7024D02*
X11369D01*
X11226Y7231D02*
X11369D01*
X11226Y7241D02*
X11369D01*
X11226Y7251D02*
X11369D01*
X11226Y7260D02*
X11369D01*
X11226Y7270D02*
X11369D01*
X11226Y7280D02*
X11369D01*
X11226Y7290D02*
X11369D01*
X11226Y7300D02*
X11369D01*
X11226Y7310D02*
X11369D01*
X11226Y7320D02*
X11369D01*
X11054Y7339D02*
X11186D01*
X11055Y7349D02*
X11186D01*
X11055Y7359D02*
X11186D01*
X11055Y7369D02*
X11186D01*
X11055Y7379D02*
X11186D01*
X11055Y7388D02*
X11186D01*
X11055Y7428D02*
X11183D01*
X11055Y7438D02*
X11197D01*
X11055Y7447D02*
X11369D01*
X11055Y7457D02*
X11369D01*
X11055Y7467D02*
X11369D01*
X11055Y7477D02*
X11369D01*
X11055Y7487D02*
X11369D01*
X11055Y7497D02*
X11369D01*
X11055Y7507D02*
X11369D01*
X11055Y7516D02*
X11369D01*
X11055Y7526D02*
X11369D01*
X11055Y7536D02*
X11369D01*
X11055Y7546D02*
X11369D01*
X11055Y7556D02*
X11369D01*
X11055Y7566D02*
X11369D01*
X11055Y7575D02*
X11369D01*
X11055Y7585D02*
X11369D01*
X11055Y7595D02*
X11369D01*
X11055Y7605D02*
X11369D01*
X11055Y7615D02*
X11369D01*
X11055Y7625D02*
X11369D01*
X11055Y7634D02*
X11369D01*
X11055Y7644D02*
X11369D01*
X11055Y7654D02*
X11369D01*
X11055Y7664D02*
X11369D01*
X11055Y7674D02*
X11369D01*
X11055Y7684D02*
X11369D01*
X11055Y7694D02*
X11369D01*
X11055Y7703D02*
X11369D01*
X11055Y7713D02*
X11369D01*
X11055Y7723D02*
X11369D01*
X11055Y7733D02*
X11369D01*
X11055Y7743D02*
X11369D01*
X11244Y7049D02*
Y8178D01*
X11226Y7163D02*
Y7391D01*
X11263Y7044D02*
Y8179D01*
X11254Y7047D02*
Y8178D01*
X11273Y7040D02*
Y8184D01*
X11234Y7050D02*
Y8182D01*
X11303Y7018D02*
Y8426D01*
X11283Y7035D02*
Y8192D01*
X11293Y7028D02*
Y8417D01*
X11226Y7329D02*
X11369D01*
X11226Y7339D02*
X11369D01*
X11322Y6983D02*
Y8461D01*
X11313Y7005D02*
Y8439D01*
X11226Y7349D02*
X11369D01*
X11332Y6817D02*
Y8628D01*
X11342Y6817D02*
Y8628D01*
X11352Y6817D02*
Y8628D01*
X11362Y6817D02*
Y8628D01*
X11369Y6817D02*
Y8628D01*
X11226Y7359D02*
X11369D01*
X11226Y7369D02*
X11369D01*
X11226Y7379D02*
X11369D01*
X11185Y7430D02*
Y8194D01*
X11195Y7437D02*
Y8401D01*
X11224Y7432D02*
Y8189D01*
X11204Y7439D02*
Y8398D01*
X11214Y7438D02*
Y8205D01*
X11226Y7388D02*
X11369D01*
X11228Y7428D02*
X11369D01*
X11231Y7398D02*
X11369D01*
X11233Y7408D02*
X11369D01*
X11233Y7418D02*
X11369D01*
X11055Y7753D02*
X11369D01*
X11055Y7762D02*
X11369D01*
X11214Y7438D02*
X11369D01*
X11055Y7772D02*
X11369D01*
X11055Y7782D02*
X11369D01*
X10767Y7834D02*
X10790Y7812D01*
X10732Y7841D02*
X10767D01*
X10771Y7793D02*
Y7830D01*
X10781Y7803D02*
Y7820D01*
X10732Y7851D02*
X10767D01*
X10732Y7861D02*
X10767D01*
Y7834D02*
Y7899D01*
X10732Y7871D02*
X10767D01*
Y7899D02*
X10799Y7931D01*
X10772Y7867D02*
X10831D01*
X10799Y7931D02*
X10863D01*
X10831Y7867D02*
Y7926D01*
X10863Y7931D02*
X10895Y7899D01*
X10874Y7920D02*
X10895D01*
X10801Y7931D02*
Y8094D01*
X10811Y7931D02*
Y8094D01*
X10880Y7914D02*
Y8060D01*
X10821Y7931D02*
Y8069D01*
X10870Y7924D02*
Y8044D01*
X10830Y7931D02*
Y8048D01*
X10840Y7931D02*
Y8040D01*
X10850Y7931D02*
Y8038D01*
X10860Y7931D02*
Y8039D01*
X10800Y8094D02*
X10812D01*
X10818Y8071D02*
X10824Y8065D01*
X10812Y8086D02*
Y8094D01*
X10857Y8038D02*
X10895D01*
X10864Y7930D02*
X10895D01*
X10874Y8048D02*
X10895D01*
X10879Y8058D02*
X10895D01*
X10852Y8094D02*
X10864D01*
X10880Y8068D02*
X10895D01*
X10878Y8077D02*
X10895D01*
X10870Y8087D02*
X10895D01*
X10975Y7792D02*
X10981D01*
X10935Y7841D02*
X10977D01*
X10978Y7789D02*
Y7839D01*
X10981Y7788D02*
Y7835D01*
X10935Y7851D02*
X10973D01*
X10935Y7861D02*
X10974D01*
X10968Y7799D02*
Y7971D01*
X10935Y7871D02*
X10978D01*
X10978Y7870D02*
Y7964D01*
X10936Y7831D02*
X10981D01*
X10935Y7881D02*
X10991D01*
X10965Y7802D02*
X10981D01*
X10955Y7812D02*
X10981D01*
X10945Y7821D02*
X10981D01*
X10988Y7879D02*
Y7962D01*
X11015Y7879D02*
Y7945D01*
X11008Y7882D02*
Y7953D01*
X11012Y7881D02*
X11015D01*
X10884Y7910D02*
X10895D01*
X10935Y7949D02*
X11011D01*
X10998Y7882D02*
Y7963D01*
X10935Y7969D02*
X10970D01*
X10935Y7959D02*
X11001D01*
X10935Y7979D02*
X10963D01*
X10935Y7989D02*
X10961D01*
X10935Y7999D02*
X10963D01*
X10935Y8008D02*
X10968D01*
X10935Y7890D02*
X11015D01*
X10935Y7900D02*
X11015D01*
X10935Y7910D02*
X11015D01*
X10935Y7920D02*
X11015D01*
X10935Y7930D02*
X11015D01*
X10935Y7940D02*
X11015D01*
X10998Y7963D02*
X11015Y7945D01*
X11013Y8004D02*
X11049Y7968D01*
X10781Y7913D02*
Y8113D01*
X10791Y7923D02*
Y8103D01*
X10880Y8071D02*
Y8110D01*
X10870Y8087D02*
Y8100D01*
X10768Y8126D02*
X10800Y8094D01*
X10768Y8126D02*
Y8191D01*
X10771Y7903D02*
Y8123D01*
Y8194D02*
Y8628D01*
X10768Y8191D02*
X10800Y8223D01*
X10867Y8097D02*
X10895D01*
X10877Y8107D02*
X10895D01*
Y7899D02*
Y8125D01*
X10889Y7905D02*
Y8120D01*
X10887Y8117D02*
X10895D01*
X10864Y8094D02*
X10895Y8125D01*
X10864Y8223D02*
X10895Y8192D01*
Y8555D01*
X10889Y8198D02*
Y8563D01*
X10892Y8195D02*
X10895D01*
X10781Y8204D02*
Y8628D01*
X10791Y8214D02*
Y8628D01*
X10800Y8223D02*
X10864D01*
X10801D02*
Y8628D01*
X10811Y8223D02*
Y8628D01*
X10821Y8223D02*
Y8628D01*
X10830Y8223D02*
Y8628D01*
X10840Y8223D02*
Y8628D01*
X10850Y8223D02*
Y8628D01*
X10860Y8223D02*
Y8628D01*
X10872Y8215D02*
X10895D01*
X10870Y8217D02*
Y8628D01*
X10882Y8205D02*
X10895D01*
X10880Y8207D02*
Y8628D01*
X10889Y8586D02*
Y8628D01*
X10899Y8598D02*
Y8628D01*
X10929Y8599D02*
Y8628D01*
X10909Y8602D02*
Y8628D01*
X10919Y8602D02*
Y8628D01*
X10939Y7828D02*
Y8559D01*
X10935Y7832D02*
Y8555D01*
X10958Y7809D02*
Y8628D01*
X10948Y7818D02*
Y8628D01*
X10968Y8008D02*
Y8628D01*
X10978Y8015D02*
Y8628D01*
X11008Y8011D02*
Y8628D01*
X10988Y8018D02*
Y8628D01*
X10998Y8016D02*
Y8628D01*
X11017Y8000D02*
Y8178D01*
X11012D02*
X11092D01*
X11047Y7970D02*
Y8178D01*
X11027Y7990D02*
Y8178D01*
X11037Y7980D02*
Y8178D01*
X10935Y8186D02*
X11012D01*
X10935Y8195D02*
X11012D01*
Y8178D02*
Y8258D01*
X11052Y8183D02*
Y8218D01*
X11092Y8178D02*
Y8258D01*
X10935Y8205D02*
X11012D01*
X10935Y8215D02*
X11012D01*
X10935Y8225D02*
X11012D01*
X10935Y8235D02*
X11012D01*
X10935Y8245D02*
X11012D01*
X10935Y8255D02*
X11012D01*
X11017Y8258D02*
Y8628D01*
X10939Y8590D02*
Y8628D01*
X11027Y8258D02*
Y8628D01*
X11017Y8218D02*
X11052D01*
X11012Y8258D02*
X11092D01*
X11052Y8218D02*
X11087D01*
X11037Y8258D02*
Y8628D01*
X11052Y8218D02*
Y8253D01*
X11047Y8258D02*
Y8628D01*
X11057Y8258D02*
Y8628D01*
X11067Y8258D02*
Y8628D01*
X11076Y8258D02*
Y8628D01*
X11086Y8258D02*
Y8628D01*
X11055Y7792D02*
X11369D01*
X11055Y7802D02*
X11369D01*
X11055Y7812D02*
X11369D01*
X11055Y7821D02*
X11369D01*
X11028Y7989D02*
X11369D01*
X11018Y7999D02*
X11369D01*
X11055Y7831D02*
X11369D01*
X11048Y7969D02*
X11369D01*
X11038Y7979D02*
X11369D01*
X10935Y8018D02*
X11369D01*
X10935Y8028D02*
X11369D01*
X11010Y8008D02*
X11369D01*
X10935Y8038D02*
X11369D01*
X10935Y8048D02*
X11369D01*
X10935Y8058D02*
X11369D01*
X10935Y8068D02*
X11369D01*
X10935Y8077D02*
X11369D01*
X10935Y8087D02*
X11369D01*
X10935Y8097D02*
X11369D01*
X10935Y8107D02*
X11369D01*
X10935Y8117D02*
X11369D01*
X10935Y8127D02*
X11369D01*
X10935Y8136D02*
X11369D01*
X10935Y8146D02*
X11369D01*
X10935Y8156D02*
X11369D01*
X10935Y8166D02*
X11369D01*
X10935Y8176D02*
X11369D01*
X10935Y8264D02*
X11369D01*
X10935Y8274D02*
X11369D01*
X10935Y8284D02*
X11369D01*
X10935Y8294D02*
X11369D01*
X10935Y8304D02*
X11369D01*
X10935Y8314D02*
X11369D01*
X10935Y8323D02*
X11369D01*
X10935Y8333D02*
X11369D01*
X10935Y8343D02*
X11369D01*
X10935Y8353D02*
X11369D01*
X10935Y8363D02*
X11369D01*
X10935Y8373D02*
X11369D01*
X11055Y7841D02*
X11369D01*
X11055Y7851D02*
X11369D01*
X11055Y7861D02*
X11369D01*
X11055Y7871D02*
X11369D01*
X11092Y8186D02*
X11128D01*
X11092Y8195D02*
X11119D01*
X11176Y8186D02*
X11228D01*
X11055Y7881D02*
X11369D01*
X11055Y7890D02*
X11369D01*
X11055Y7900D02*
X11369D01*
X11055Y7910D02*
X11369D01*
X11055Y7920D02*
X11369D01*
X11055Y7930D02*
X11369D01*
X11055Y7940D02*
X11369D01*
X11055Y7949D02*
X11369D01*
X11054Y7959D02*
X11369D01*
X11276Y8186D02*
X11369D01*
X11092Y8205D02*
X11114D01*
X11092Y8215D02*
X11112D01*
X11190Y8205D02*
X11214D01*
X11092Y8225D02*
X11113D01*
X11192Y8215D02*
X11212D01*
X11092Y8235D02*
X11116D01*
X11092Y8245D02*
X11123D01*
X11191Y8225D02*
X11213D01*
X11092Y8255D02*
X11137D01*
X11188Y8235D02*
X11216D01*
X11185Y8195D02*
X11219D01*
X11285D02*
X11369D01*
X11290Y8205D02*
X11369D01*
X11292Y8215D02*
X11369D01*
X11291Y8225D02*
X11369D01*
X11182Y8245D02*
X11223D01*
X11167Y8255D02*
X11237D01*
X11288Y8235D02*
X11369D01*
X11282Y8245D02*
X11369D01*
X11267Y8255D02*
X11369D01*
X10935Y8442D02*
X11149D01*
X10935Y8451D02*
X11144D01*
X11145Y8257D02*
Y8448D01*
X11155Y8257D02*
Y8432D01*
X10935Y8461D02*
X11140D01*
X10935Y8471D02*
X11137D01*
X11116Y8234D02*
Y8628D01*
X11126Y8248D02*
Y8628D01*
X11135Y8254D02*
Y8628D01*
X10935Y8382D02*
X11369D01*
X10935Y8392D02*
X11369D01*
X11185Y8241D02*
Y8406D01*
X10935Y8412D02*
X11175D01*
X10935Y8402D02*
X11193D01*
X10935Y8422D02*
X11164D01*
X10935Y8432D02*
X11155D01*
X11175Y8250D02*
Y8412D01*
X11165Y8255D02*
Y8421D01*
X10935Y8481D02*
X11136D01*
X10935Y8491D02*
X11136D01*
X10935Y8501D02*
X11136D01*
X10935Y8510D02*
X11138D01*
X10935Y8520D02*
X11141D01*
X10935Y8530D02*
X11144D01*
X10935Y8540D02*
X11150D01*
X11145Y8532D02*
Y8628D01*
X11155Y8548D02*
Y8628D01*
X10935Y8550D02*
X11157D01*
X10939Y8560D02*
X11166D01*
X10929Y8599D02*
X11369D01*
X10943Y8569D02*
X11178D01*
X10943Y8579D02*
X11198D01*
X10939Y8589D02*
X11369D01*
X11165Y8559D02*
Y8628D01*
X11175Y8567D02*
Y8628D01*
X11185Y8573D02*
Y8628D01*
X11195Y8578D02*
Y8628D01*
X11204Y8582D02*
Y8628D01*
X11214Y8230D02*
Y8396D01*
X11224Y8246D02*
Y8394D01*
X11234Y8253D02*
Y8394D01*
X11244Y8257D02*
Y8395D01*
X11263Y8256D02*
Y8400D01*
X11254Y8258D02*
Y8397D01*
X11283Y8243D02*
Y8409D01*
X11273Y8252D02*
Y8404D01*
X11270Y8402D02*
X11369D01*
X11287Y8412D02*
X11369D01*
X11299Y8422D02*
X11369D01*
X11307Y8432D02*
X11369D01*
X11314Y8442D02*
X11369D01*
X11319Y8451D02*
X11369D01*
X11323Y8461D02*
X11369D01*
X11325Y8471D02*
X11369D01*
X11327Y8481D02*
X11369D01*
X11327Y8491D02*
X11369D01*
X11326Y8501D02*
X11369D01*
X11214Y8584D02*
Y8628D01*
X11224Y8585D02*
Y8628D01*
X11254Y8583D02*
Y8628D01*
X11234Y8585D02*
Y8628D01*
X11244Y8585D02*
Y8628D01*
X11273Y8576D02*
Y8628D01*
X11263Y8580D02*
Y8628D01*
X11303Y8553D02*
Y8628D01*
X11283Y8570D02*
Y8628D01*
X11293Y8563D02*
Y8628D01*
X11313Y8540D02*
X11369D01*
X11306Y8550D02*
X11369D01*
X11325Y8510D02*
X11369D01*
X11322Y8520D02*
X11369D01*
X11318Y8530D02*
X11369D01*
X11284Y8569D02*
X11369D01*
X11265Y8579D02*
X11369D01*
X11322Y8519D02*
Y8628D01*
X11313Y8540D02*
Y8628D01*
X11297Y8560D02*
X11369D01*
X10227Y6852D02*
X10226Y6861D01*
X10224Y6871D01*
X10220Y6880D01*
X10215Y6888D01*
X10208Y6895D01*
X10200Y6901D01*
X10192Y6906D01*
X10183Y6909D01*
X10173Y6910D01*
X10163D01*
X10154Y6909D01*
X10144Y6906D01*
X10136Y6901D01*
X10128Y6895D01*
X10122Y6888D01*
X10116Y6880D01*
X10112Y6871D01*
X10110Y6861D01*
X10109Y6852D01*
X10227Y6817D02*
Y6851D01*
X10109Y6817D02*
Y6852D01*
X10227Y6817D02*
X11369D01*
X10753Y7435D02*
Y8482D01*
X9231Y7435D02*
Y8482D01*
Y7435D02*
X10753D01*
X9231Y8482D02*
X10753Y8482D01*
X8928Y6817D02*
Y8628D01*
Y6817D02*
X10109D01*
X11369D02*
Y8628D01*
X8928D02*
X11369D01*
D18*
X11231Y6954D02*
D03*
X9066D02*
D03*
X11231Y8490D02*
D03*
X9066D02*
D03*
D19*
X10152Y7187D02*
D03*
D20*
Y7087D02*
D03*
D21*
X11252Y8218D02*
D03*
X11152D02*
D03*
D22*
X11052D02*
D03*
D23*
X11309Y7201D02*
D03*
X11155Y7158D02*
D03*
X10948Y7206D02*
D03*
X10864Y7162D02*
D03*
X11317Y8373D02*
D03*
X11126Y8415D02*
D03*
X11145Y8320D02*
D03*
X11322Y8064D02*
D03*
Y7749D02*
D03*
X11107Y7959D02*
D03*
X11068Y8087D02*
D03*
X11199Y7940D02*
D03*
X11206Y7684D02*
D03*
X10830Y7310D02*
D03*
X10830Y7364D02*
D03*
X10958Y7667D02*
D03*
X10962Y7467D02*
D03*
X11072Y7546D02*
D03*
X10958Y7604D02*
D03*
X11182Y7546D02*
D03*
X11283Y7422D02*
D03*
X11234Y7078D02*
D03*
X11086Y6891D02*
D03*
X9968Y6906D02*
D03*
X10283Y6886D02*
D03*
X10565Y6958D02*
D03*
X10560Y7054D02*
D03*
X10574Y7194D02*
D03*
X10382Y7192D02*
D03*
X9636Y7201D02*
D03*
X9275Y7350D02*
D03*
X9335Y7211D02*
D03*
X9078Y7402D02*
D03*
X9069Y7847D02*
D03*
X9066Y8195D02*
D03*
X10378Y8562D02*
D03*
X10801Y8564D02*
D03*
X9192Y8579D02*
D03*
X9275Y8548D02*
D03*
X9470Y8550D02*
D03*
X10965Y7765D02*
D03*
X10761Y7254D02*
D03*
X11206Y7411D02*
D03*
X10704Y7221D02*
D03*
X10981Y7244D02*
D03*
X11001Y7855D02*
D03*
X10989Y7990D02*
D03*
X11104Y7123D02*
D03*
X10915Y8575D02*
D03*
X10844Y7951D02*
D03*
X10852Y8066D02*
D03*
X10819Y7059D02*
D03*
X11053Y7014D02*
D03*
D24*
X10832Y8159D02*
D03*
X10831Y7757D02*
D03*
Y7867D02*
D03*
M02*
